// Jest Snapshot v1, https://goo.gl/fbAQLP

exports[`Facebooklogin component should match the snapshot 1`] = `"<div><span style=\\"transition:opacity 0.5s;opacity:0.6\\"><button type=\\"button\\" class=\\"btnfacebook metro\\">Login with Facebook</button></span></div>"`;
