// Jest Snapshot v1, https://goo.gl/fbAQLP

exports[`Loginwithgoogle component should match the snapshot 1`] = `"<div><button class=\\"btngoogle\\" id=\\"googleBtn\\" data-testid=\\"btn-google\\" disabled=\\"\\">Login with Google</button></div>"`;
